{
  "from": 1,
  "to": 20,
  "count": 20,
  "_links": {
    "next": {
      "href": "https://api.edamam.com/api/recipes/v2?q=popular"
    }
  },
  "hits": [
    {
      "recipe": {
        "uri": "http://www.edamam.com/ontologies/edamam.owl#recipe_1",
        "label": "Classic Margherita Pizza",
        "image": "https://images.pexels.com/photos/2147491/pexels-photo-2147491.jpeg",
        "source": "Food Network",
        "url": "https://www.foodnetwork.com/recipes/margherita-pizza",
        "yield": 4,
        "dietLabels": ["Balanced"],
        "healthLabels": ["Vegetarian", "Mediterranean"],
        "cautions": ["Gluten"],
        "ingredientLines": [
          "1 pound pizza dough",
          "1 cup tomato sauce",
          "8 ounces fresh mozzarella",
          "Fresh basil leaves",
          "Olive oil",
          "Salt and pepper to taste"
        ],
        "ingredients": [
          {
            "text": "1 pound pizza dough",
            "quantity": 1,
            "measure": "pound",
            "food": "pizza dough",
            "weight": 453.59,
            "foodCategory": "bread",
            "foodId": "food_bq98fb1beuviwwag8q0s5aj14fxn",
            "image": "https://www.edamam.com/food-img/19f/19fc0706f04d44f62fc79ab4d7a07d7b.jpg"
          }
        ],
        "calories": 850,
        "totalWeight": 930,
        "totalTime": 45,
        "cuisineType": ["Italian"],
        "mealType": ["Lunch", "Dinner"],
        "dishType": ["Main course"]
      },
      "_links": {
        "self": {
          "href": "http://www.edamam.com/ontologies/edamam.owl#recipe_1"
        }
      }
    },
    {
      "recipe": {
        "uri": "http://www.edamam.com/ontologies/edamam.owl#recipe_2",
        "label": "Grilled Chicken Caesar Salad",
        "image": "https://images.pexels.com/photos/2097090/pexels-photo-2097090.jpeg",
        "source": "Bon Appetit",
        "url": "https://www.bonappetit.com/recipe/grilled-chicken-caesar",
        "yield": 4,
        "dietLabels": ["High-Protein", "Low-Carb"],
        "healthLabels": ["Mediterranean", "Dairy-Free"],
        "cautions": [],
        "ingredientLines": [
          "2 chicken breasts",
          "Romaine lettuce",
          "Caesar dressing",
          "Parmesan cheese",
          "Croutons",
          "Salt and pepper"
        ],
        "ingredients": [
          {
            "text": "2 chicken breasts",
            "quantity": 2,
            "measure": "unit",
            "food": "chicken breast",
            "weight": 340,
            "foodCategory": "Poultry",
            "foodId": "food_bdrxu94aj3x2djbpur8dhagfhkcn",
            "image": "https://www.edamam.com/food-img/da5/da510379d3650787338ca16fb69f4c94.jpg"
          }
        ],
        "calories": 450,
        "totalWeight": 600,
        "totalTime": 30,
        "cuisineType": ["American"],
        "mealType": ["Lunch", "Dinner"],
        "dishType": ["Salad"]
      },
      "_links": {
        "self": {
          "href": "http://www.edamam.com/ontologies/edamam.owl#recipe_2"
        }
      }
    },
    {
      "recipe": {
        "uri": "http://www.edamam.com/ontologies/edamam.owl#recipe_3",
        "label": "Chocolate Chip Cookies",
        "image": "https://images.pexels.com/photos/230325/pexels-photo-230325.jpeg",
        "source": "Martha Stewart",
        "url": "https://www.marthastewart.com/chocolate-chip-cookies",
        "yield": 24,
        "dietLabels": ["Low-Sodium"],
        "healthLabels": ["Vegetarian"],
        "cautions": ["Tree-Nuts"],
        "ingredientLines": [
          "2 1/4 cups all-purpose flour",
          "1 cup butter, softened",
          "3/4 cup sugar",
          "3/4 cup brown sugar",
          "2 large eggs",
          "2 cups chocolate chips"
        ],
        "ingredients": [
          {
            "text": "2 1/4 cups all-purpose flour",
            "quantity": 2.25,
            "measure": "cup",
            "food": "all-purpose flour",
            "weight": 281.25,
            "foodCategory": "grains",
            "foodId": "food_ar3x2x4a67xpqxb6n6qj3b2uqxd3",
            "image": "https://www.edamam.com/food-img/368/368077bbcab62f862a8c766a56ea5dd1.jpg"
          }
        ],
        "calories": 150,
        "totalWeight": 28,
        "totalTime": 45,
        "cuisineType": ["American"],
        "mealType": ["Snack", "Dessert"],
        "dishType": ["Cookies"]
      },
      "_links": {
        "self": {
          "href": "http://www.edamam.com/ontologies/edamam.owl#recipe_3"
        }
      }
    },
    {
      "recipe": {
        "uri": "http://www.edamam.com/ontologies/edamam.owl#recipe_4",
        "label": "Vegetable Stir Fry",
        "image": "https://images.pexels.com/photos/1640777/pexels-photo-1640777.jpeg",
        "source": "Food & Wine",
        "url": "https://www.foodandwine.com/recipes/vegetable-stir-fry",
        "yield": 4,
        "dietLabels": ["Low-Fat", "Vegan"],
        "healthLabels": ["Vegetarian", "Vegan"],
        "cautions": ["Soy"],
        "ingredientLines": [
          "2 cups mixed vegetables",
          "2 tablespoons soy sauce",
          "1 tablespoon sesame oil",
          "2 cloves garlic",
          "1 inch ginger",
          "Rice for serving"
        ],
        "ingredients": [
          {
            "text": "2 cups mixed vegetables",
            "quantity": 2,
            "measure": "cup",
            "food": "mixed vegetables",
            "weight": 340,
            "foodCategory": "vegetables",
            "foodId": "food_br7afr0ad0n3x8b3qincqahj3xb1",
            "image": "https://www.edamam.com/food-img/b6d/b6d9f3f981324f969c941ee3d11eb6ef.jpg"
          }
        ],
        "calories": 250,
        "totalWeight": 400,
        "totalTime": 20,
        "cuisineType": ["Asian"],
        "mealType": ["Lunch", "Dinner"],
        "dishType": ["Main course"]
      },
      "_links": {
        "self": {
          "href": "http://www.edamam.com/ontologies/edamam.owl#recipe_4"
        }
      }
    },
    {
      "recipe": {
        "uri": "http://www.edamam.com/ontologies/edamam.owl#recipe_5",
        "label": "Berry Smoothie Bowl",
        "image": "https://images.pexels.com/photos/1099680/pexels-photo-1099680.jpeg",
        "source": "Minimalist Baker",
        "url": "https://minimalistbaker.com/berry-smoothie-bowl",
        "yield": 2,
        "dietLabels": ["Low-Fat"],
        "healthLabels": ["Vegan", "Gluten-Free"],
        "cautions": [],
        "ingredientLines": [
          "2 cups mixed berries",
          "1 banana",
          "1 cup almond milk",
          "1 tablespoon honey",
          "Granola and fresh fruit for topping"
        ],
        "ingredients": [
          {
            "text": "2 cups mixed berries",
            "quantity": 2,
            "measure": "cup",
            "food": "mixed berries",
            "weight": 340,
            "foodCategory": "fruit",
            "foodId": "food_bgr7xjhb3x9fz0a9j2rgnauvr1vr",
            "image": "https://www.edamam.com/food-img/f55/f55705a2a9ea9f7abf449a05fa968139.png"
          }
        ],
        "calories": 200,
        "totalWeight": 450,
        "totalTime": 10,
        "cuisineType": ["American"],
        "mealType": ["Breakfast"],
        "dishType": ["Smoothie"]
      },
      "_links": {
        "self": {
          "href": "http://www.edamam.com/ontologies/edamam.owl#recipe_5"
        }
      }
    }
  ]
}